<?xml version="1.0" encoding="utf-8"?>
<!-- Generator: Adobe Illustrator 16.0.0, SVG Export Plug-In . SVG Version: 6.00 Build 0)  -->
<!DOCTYPE svg PUBLIC "-//W3C//DTD SVG 1.1//EN" "http://www.w3.org/Graphics/SVG/1.1/DTD/svg11.dtd">
<svg version="1.1" id="Слой_1" xmlns="http://www.w3.org/2000/svg" xmlns:xlink="http://www.w3.org/1999/xlink" x="0px" y="0px"
	 width="160px" height="160px" viewBox="0 0 160 160" enable-background="new 0 0 160 160" xml:space="preserve">
<g>
	<polygon fill="none" stroke="#121212" stroke-width="2" stroke-linecap="round" stroke-miterlimit="10" points="63.769,126.572 
		34.23,97.033 46.046,91.123 69.677,114.758 	"/>
	
		<line fill="none" stroke="#121212" stroke-width="2" stroke-linecap="round" stroke-miterlimit="10" x1="121.561" y1="39.617" x2="125.99" y2="35.186"/>
	
		<circle fill="none" stroke="#121212" stroke-width="2" stroke-linecap="round" stroke-miterlimit="10" cx="130.422" cy="30.755" r="6.267"/>
	
		<rect x="28.899" y="33.942" transform="matrix(0.7071 -0.7071 0.7071 0.7071 -19.272 52.6881)" fill="none" stroke="#121212" stroke-width="2" stroke-linecap="round" stroke-miterlimit="10" width="50.134" height="31.332"/>
	
		<line fill="none" stroke="#121212" stroke-width="2" stroke-linecap="round" stroke-miterlimit="10" x1="31.072" y1="50.346" x2="53.227" y2="72.504"/>
	
		<line fill="none" stroke="#121212" stroke-width="2" stroke-linecap="round" stroke-miterlimit="10" x1="36.979" y1="44.439" x2="59.137" y2="66.594"/>
	
		<line fill="none" stroke="#121212" stroke-width="2" stroke-linecap="round" stroke-miterlimit="10" x1="42.887" y1="38.53" x2="65.044" y2="60.687"/>
	
		<line fill="none" stroke="#121212" stroke-width="2" stroke-linecap="round" stroke-miterlimit="10" x1="48.796" y1="32.622" x2="70.952" y2="54.779"/>
	
		<line fill="none" stroke="#121212" stroke-width="2" stroke-linecap="round" stroke-miterlimit="10" x1="54.704" y1="26.714" x2="76.86" y2="48.87"/>
	
		<rect x="86.504" y="91.546" transform="matrix(0.7071 -0.7071 0.7071 0.7071 -43.1324 110.2888)" fill="none" stroke="#121212" stroke-width="2" stroke-linecap="round" stroke-miterlimit="10" width="50.131" height="31.332"/>
	
		<line fill="none" stroke="#121212" stroke-width="2" stroke-linecap="round" stroke-miterlimit="10" x1="88.676" y1="107.951" x2="110.83" y2="130.107"/>
	
		<line fill="none" stroke="#121212" stroke-width="2" stroke-linecap="round" stroke-miterlimit="10" x1="94.582" y1="102.043" x2="116.74" y2="124.197"/>
	
		<line fill="none" stroke="#121212" stroke-width="2" stroke-linecap="round" stroke-miterlimit="10" x1="100.49" y1="96.133" x2="122.648" y2="118.291"/>
	
		<line fill="none" stroke="#121212" stroke-width="2" stroke-linecap="round" stroke-miterlimit="10" x1="106.4" y1="90.225" x2="128.555" y2="112.383"/>
	
		<line fill="none" stroke="#121212" stroke-width="2" stroke-linecap="round" stroke-miterlimit="10" x1="112.309" y1="84.318" x2="134.465" y2="106.473"/>
	<path fill="none" stroke="#121212" stroke-width="2" stroke-linecap="round" stroke-miterlimit="10" d="M109.746,69.156
		l-42.835,42.832L49.188,94.268l42.833-42.834c4.873-4.875,12.852-4.875,17.725,0C114.619,56.307,114.619,64.282,109.746,69.156z"/>
	<path fill="none" stroke="#121212" stroke-width="2" stroke-linecap="round" stroke-miterlimit="10" d="M109.746,27.8
		c-6.527,6.526-6.527,17.108,0,23.634c6.525,6.525,17.105,6.525,23.631,0L109.746,27.8z"/>
	
		<line fill="none" stroke="#121212" stroke-width="2" stroke-linecap="round" stroke-miterlimit="10" x1="74.607" y1="68.844" x2="71.655" y2="65.892"/>
	
		<line fill="none" stroke="#121212" stroke-width="2" stroke-linecap="round" stroke-miterlimit="10" x1="71.849" y1="66.086" x2="60.032" y2="66.086"/>
	
		<line fill="none" stroke="#121212" stroke-width="2" stroke-linecap="round" stroke-miterlimit="10" x1="71.849" y1="66.086" x2="71.849" y2="54.269"/>
	
		<line fill="none" stroke="#121212" stroke-width="2" stroke-linecap="round" stroke-miterlimit="10" x1="91.287" y1="87.611" x2="94.826" y2="91.152"/>
	
		<line fill="none" stroke="#121212" stroke-width="2" stroke-linecap="round" stroke-miterlimit="10" x1="94.826" y1="91.152" x2="94.826" y2="101.797"/>
	
		<line fill="none" stroke="#121212" stroke-width="2" stroke-linecap="round" stroke-miterlimit="10" x1="94.826" y1="91.152" x2="105.473" y2="91.152"/>
	<path stroke="#121212" stroke-miterlimit="10" d="M44.694,137.105c0,1.152-0.936,2.09-2.089,2.09c-1.152,0-2.089-0.938-2.089-2.09
		s0.937-2.088,2.089-2.088C43.758,135.018,44.694,135.953,44.694,137.105"/>
	<path stroke="#121212" stroke-miterlimit="10" d="M30.072,130.84c0,1.152-0.936,2.088-2.089,2.088
		c-1.152,0-2.088-0.936-2.088-2.088s0.936-2.09,2.088-2.09C29.136,128.75,30.072,129.688,30.072,130.84"/>
	<path stroke="#121212" stroke-miterlimit="10" d="M34.25,126.662c0,1.152-0.936,2.088-2.089,2.088
		c-1.152,0-2.089-0.936-2.089-2.088s0.937-2.09,2.089-2.09C33.314,124.572,34.25,125.51,34.25,126.662"/>
	<path stroke="#121212" stroke-miterlimit="10" d="M38.428,122.484c0,1.152-0.937,2.088-2.089,2.088
		c-1.153,0-2.089-0.936-2.089-2.088s0.936-2.09,2.089-2.09C37.491,120.395,38.428,121.332,38.428,122.484"/>
	<path stroke="#121212" stroke-miterlimit="10" d="M42.605,118.307c0,1.152-0.936,2.088-2.089,2.088
		c-1.152,0-2.088-0.936-2.088-2.088c0-1.154,0.936-2.09,2.088-2.09C41.669,116.217,42.605,117.152,42.605,118.307"/>
	
		<line fill="none" stroke="#121212" stroke-width="2" stroke-linecap="round" stroke-miterlimit="10" x1="46.783" y1="122.484" x2="44.694" y2="130.84"/>
	<path stroke="#121212" stroke-miterlimit="10" d="M21.717,114.129c-1.153,0-2.089,0.936-2.089,2.088s0.936,2.09,2.089,2.09
		c1.152,0,2.089-0.938,2.089-2.09S22.87,114.129,21.717,114.129"/>
	
		<line fill="none" stroke="#121212" stroke-width="2" stroke-linecap="round" stroke-miterlimit="10" x1="36.339" y1="112.039" x2="27.983" y2="114.129"/>
	
		<line fill="none" stroke="#121212" stroke-width="2" stroke-linecap="round" stroke-miterlimit="10" x1="57.917" y1="102.996" x2="73.938" y2="86.975"/>
</g>
</svg>
